{
	"version": 1,
	"changelists": [
		{
			"guid": "00000000000000000000000000000000",
			"description": "Default Uncontrolled Changelist",
			"files": [
				"D:/UnrealEngine/metro-dispatch/MetroDispatch/Content/Maps/default_HLOD0_Instancing.uasset",
				"D:/UnrealEngine/metro-dispatch/MetroDispatch/Content/__ExternalActors__/Maps/default/9/1S/44VKRFEFDETGJ9XDC27BXD.uasset",
				"D:/UnrealEngine/metro-dispatch/MetroDispatch/Content/__ExternalObjects__/Maps/default/4/X5/2DO2XYRVM1USO0UBTR8IP3.uasset",
				"D:/UnrealEngine/metro-dispatch/MetroDispatch/Content/__ExternalObjects__/Maps/default/B/W1/LFCM6KFLPN1YB4CZUQU60Q.uasset",
				"D:/UnrealEngine/metro-dispatch/MetroDispatch/Content/__ExternalObjects__/Maps/default/4/3U/NLYER8UN0MTBIUCQ8VK8D1.uasset",
				"D:/UnrealEngine/metro-dispatch/MetroDispatch/Content/__ExternalObjects__/Maps/default/2/1P/EGOC8ZAVW5DDPE9SC09TL2.uasset",
				"D:/UnrealEngine/metro-dispatch/MetroDispatch/Content/__ExternalObjects__/Maps/default/3/Q6/CP6GFJQ3FVBUDILQC49R45.uasset",
				"D:/UnrealEngine/metro-dispatch/MetroDispatch/Content/__ExternalObjects__/Maps/default/B/JX/U8ZL649X7AWDQU0BAFUS4S.uasset",
				"D:/UnrealEngine/metro-dispatch/MetroDispatch/Content/__ExternalActors__/Maps/default/1/GE/PVXHR0O401KCMKC3C5AY09.uasset",
				"D:/UnrealEngine/metro-dispatch/MetroDispatch/Content/__ExternalActors__/Maps/default/B/RH/QXJ5AM2RS9JXHZ3H23ZPG6.uasset",
				"D:/UnrealEngine/metro-dispatch/MetroDispatch/Content/__ExternalActors__/Maps/default/C/YE/6PT0ZWVKNSCIPP2XZLCBJV.uasset",
				"D:/UnrealEngine/metro-dispatch/MetroDispatch/Content/__ExternalActors__/Maps/default/6/L3/0KFXM07X58IW8WIIAPOXGY.uasset",
				"D:/UnrealEngine/metro-dispatch/MetroDispatch/Content/__ExternalActors__/Maps/default/5/UT/S7KW4CNO396XI1Q26ED0ST.uasset",
				"D:/UnrealEngine/metro-dispatch/MetroDispatch/Content/__ExternalActors__/Maps/default/7/FF/W6B8U4HH6FRUY1JFVRRT5I.uasset",
				"D:/UnrealEngine/metro-dispatch/MetroDispatch/Content/__ExternalActors__/Maps/default/9/EG/N1ZPAKC94KFVC3YSGLBFKP.uasset",
				"D:/UnrealEngine/metro-dispatch/MetroDispatch/Content/__ExternalActors__/Maps/default/7/2W/7712PZPRIEHVVB5SRBUIEL.uasset",
				"D:/UnrealEngine/metro-dispatch/MetroDispatch/Content/__ExternalActors__/Maps/default/D/7N/ODFGUNN7Q9C30UJMAOOJSD.uasset",
				"D:/UnrealEngine/metro-dispatch/MetroDispatch/Content/__ExternalActors__/Maps/default/2/KR/H1S2MMBDA66U9MAO6TYRLX.uasset",
				"D:/UnrealEngine/metro-dispatch/MetroDispatch/Content/__ExternalActors__/Maps/default/9/J7/DG7AEQH5GL1E1126Q87ALA.uasset",
				"D:/UnrealEngine/metro-dispatch/MetroDispatch/Content/__ExternalActors__/Maps/default/3/J4/SP2S8GAEJNS6F161FP4VEQ.uasset",
				"D:/UnrealEngine/metro-dispatch/MetroDispatch/Content/__ExternalActors__/Maps/default/B/5O/TC5LU2L3BAPYY0QFIHP813.uasset",
				"D:/UnrealEngine/metro-dispatch/MetroDispatch/Content/__ExternalActors__/Maps/default/C/XS/U19BNR46DCEXNV475IIFVN.uasset",
				"D:/UnrealEngine/metro-dispatch/MetroDispatch/Content/__ExternalActors__/Maps/default/4/CA/0RPKSZ7XH09OE33TS5HXPV.uasset",
				"D:/UnrealEngine/metro-dispatch/MetroDispatch/Content/__ExternalActors__/Maps/default/E/TT/UQ4D4PMTNFX4QQBH5KYBO6.uasset",
				"D:/UnrealEngine/metro-dispatch/MetroDispatch/Content/__ExternalActors__/Maps/default/4/7S/XQPC9KBC05C0YR5N5ZVTU6.uasset",
				"D:/UnrealEngine/metro-dispatch/MetroDispatch/Content/__ExternalActors__/Maps/default/6/56/EMU4XINAJ5A0380JTHHYO9.uasset",
				"D:/UnrealEngine/metro-dispatch/MetroDispatch/Content/__ExternalActors__/Maps/default/C/LM/1YYSR39K1K1YG58F2JMSH7.uasset",
				"D:/UnrealEngine/metro-dispatch/MetroDispatch/Content/__ExternalActors__/Maps/default/D/C5/4EE0YJ8XQDU21BUM5073QQ.uasset",
				"D:/UnrealEngine/metro-dispatch/MetroDispatch/Content/__ExternalActors__/Maps/default/D/2R/DICNJC611YB7G206ZDOZZ0.uasset",
				"D:/UnrealEngine/metro-dispatch/MetroDispatch/Content/__ExternalActors__/Maps/default/4/VX/SHDFUWXCEHKRWHR8F7EGXC.uasset",
				"D:/UnrealEngine/metro-dispatch/MetroDispatch/Content/__ExternalActors__/Maps/default/E/V7/W3O4JD9205X5HLG4EOSIEL.uasset",
				"D:/UnrealEngine/metro-dispatch/MetroDispatch/Content/__ExternalActors__/Maps/default/2/QE/GIAASWUCOMVE61G9L7JKRM.uasset",
				"D:/UnrealEngine/metro-dispatch/MetroDispatch/Content/__ExternalActors__/Maps/default/E/9F/51TX2JSBDIY2LPQI66ODA1.uasset",
				"D:/UnrealEngine/metro-dispatch/MetroDispatch/Content/__ExternalActors__/Maps/default/D/JC/G36EAYEWD9PW6YES5OI48V.uasset",
				"D:/UnrealEngine/metro-dispatch/MetroDispatch/Content/__ExternalActors__/Maps/default/E/I9/J9UEHJ5JRDMVATXATWATZW.uasset",
				"D:/UnrealEngine/metro-dispatch/MetroDispatch/Content/__ExternalActors__/Maps/default/2/HV/SU4OAXOKY309ZB0DFILX9K.uasset",
				"D:/UnrealEngine/metro-dispatch/MetroDispatch/Content/__ExternalActors__/Maps/default/E/C6/X0JGE0XGO46TJ8185KC6YY.uasset",
				"D:/UnrealEngine/metro-dispatch/MetroDispatch/Content/__ExternalActors__/Maps/default/6/NJ/KE1KHWOCHK8WSMTNPWR1BW.uasset",
				"D:/UnrealEngine/metro-dispatch/MetroDispatch/Content/__ExternalActors__/Maps/default/0/4X/HFZIUJ42CTPOLJQP5XEUXA.uasset",
				"D:/UnrealEngine/metro-dispatch/MetroDispatch/Content/__ExternalActors__/Maps/default/6/TE/UEE0XO7W2V4P7Q809OBNRX.uasset",
				"D:/UnrealEngine/metro-dispatch/MetroDispatch/Content/__ExternalActors__/Maps/default/B/72/MTRPTR4WV8FL8IC5BAUVA8.uasset",
				"D:/UnrealEngine/metro-dispatch/MetroDispatch/Content/__ExternalActors__/Maps/default/B/CE/GTPVVFWIR0DG6QI0F3COSD.uasset",
				"D:/UnrealEngine/metro-dispatch/MetroDispatch/Content/__ExternalActors__/Maps/default/A/EL/K69INWID1NATAEEUGT6ZJJ.uasset",
				"D:/UnrealEngine/metro-dispatch/MetroDispatch/Content/__ExternalActors__/Maps/default/5/4W/VM7Z0X6VPSQI80USMGZPSI.uasset",
				"D:/UnrealEngine/metro-dispatch/MetroDispatch/Content/__ExternalActors__/Maps/default/F/0N/0H415AFWD83NN4MUKHKTVG.uasset",
				"D:/UnrealEngine/metro-dispatch/MetroDispatch/Content/__ExternalActors__/Maps/default/A/2R/XHW0GZJ164LIISQ68TXLPX.uasset",
				"D:/UnrealEngine/metro-dispatch/MetroDispatch/Content/__ExternalActors__/Maps/default/A/H9/KXDYPPDZNNKL9LL3N0EU9C.uasset",
				"D:/UnrealEngine/metro-dispatch/MetroDispatch/Content/__ExternalActors__/Maps/default/3/YR/5SZ3SY4X27YV3IAAY3GNFZ.uasset",
				"D:/UnrealEngine/metro-dispatch/MetroDispatch/Content/__ExternalActors__/Maps/default/A/5P/71TUMPGNADUB1S0W4LUXWD.uasset",
				"D:/UnrealEngine/metro-dispatch/MetroDispatch/Content/__ExternalActors__/Maps/default/7/K5/OVCK1869X0LCQK9PGQ6R15.uasset",
				"D:/UnrealEngine/metro-dispatch/MetroDispatch/Content/__ExternalActors__/Maps/default/C/SH/YKV6OJJS7707UHZAY2I9MN.uasset",
				"D:/UnrealEngine/metro-dispatch/MetroDispatch/Content/__ExternalActors__/Maps/default/1/HC/400XVCMNETYK21L4UUSQQE.uasset",
				"D:/UnrealEngine/metro-dispatch/MetroDispatch/Content/__ExternalActors__/Maps/default/1/E4/PDESQR111OPFYOA0CT9RW9.uasset",
				"D:/UnrealEngine/metro-dispatch/MetroDispatch/Content/__ExternalActors__/Maps/default/7/AJ/9HTYH4Z57SXMQRX16FWZJW.uasset",
				"D:/UnrealEngine/metro-dispatch/MetroDispatch/Content/__ExternalActors__/Maps/default/9/9V/GXL0PUM7LWJURM42Y6W51M.uasset",
				"D:/UnrealEngine/metro-dispatch/MetroDispatch/Content/__ExternalActors__/Maps/default/B/O9/8Z99IV2143M578ZKZPJUW4.uasset",
				"D:/UnrealEngine/metro-dispatch/MetroDispatch/Content/__ExternalActors__/Maps/default/1/G3/AWUZ6DEQT0I5FF25I0IEW2.uasset",
				"D:/UnrealEngine/metro-dispatch/MetroDispatch/Content/__ExternalActors__/Maps/default/7/ZK/05N7LCD3QC7Y1KF9JPHMR2.uasset",
				"D:/UnrealEngine/metro-dispatch/MetroDispatch/Content/__ExternalActors__/Maps/default/3/7I/NX518AVRK8299LH5GJD7AC.uasset",
				"D:/UnrealEngine/metro-dispatch/MetroDispatch/Content/__ExternalActors__/Maps/default/4/PG/1BXQVTQBVIYSASRWXIHQM4.uasset",
				"D:/UnrealEngine/metro-dispatch/MetroDispatch/Content/__ExternalActors__/Maps/default/4/IY/CQ5V75PL8QHF90E1H6FMLR.uasset",
				"D:/UnrealEngine/metro-dispatch/MetroDispatch/Content/__ExternalActors__/Maps/default/B/MG/H6OSODX42PK02RG4HUJ2NO.uasset",
				"D:/UnrealEngine/metro-dispatch/MetroDispatch/Content/__ExternalActors__/Maps/default/C/FR/SJVXKRG92PGWEB5BQ3RQMI.uasset",
				"D:/UnrealEngine/metro-dispatch/MetroDispatch/Content/__ExternalActors__/Maps/default/2/08/IAY3BEFEDWJWZ6PQP8TSBA.uasset",
				"D:/UnrealEngine/metro-dispatch/MetroDispatch/Content/__ExternalActors__/Maps/default/0/SI/NVIB460SPNTHXTO5GZ2Q2H.uasset",
				"D:/UnrealEngine/metro-dispatch/MetroDispatch/Content/__ExternalActors__/Maps/default/A/I8/3D37P34FS26EMXM12K9W9F.uasset",
				"D:/UnrealEngine/metro-dispatch/MetroDispatch/Content/__ExternalActors__/Maps/default/4/S1/W9AJZCF35QBM616R4VSM5U.uasset",
				"D:/UnrealEngine/metro-dispatch/MetroDispatch/Content/__ExternalActors__/Maps/default/6/2L/EA6P6X83CQVRKPIPKFS4PM.uasset",
				"D:/UnrealEngine/metro-dispatch/MetroDispatch/Content/__ExternalActors__/Maps/default/2/Q8/VWPKTAKLH7O3EXNZCVL8VZ.uasset",
				"D:/UnrealEngine/metro-dispatch/MetroDispatch/Content/__ExternalActors__/Maps/default/A/2A/X1IPYMM94ON2DSL6O2TVMX.uasset",
				"D:/UnrealEngine/metro-dispatch/MetroDispatch/Content/__ExternalActors__/Maps/default/4/OB/UA7O1K8KBHA8H08DA6J3VB.uasset",
				"D:/UnrealEngine/metro-dispatch/MetroDispatch/Content/__ExternalActors__/Maps/default/B/A6/U4AM302UZ7ZGGXCB4FR6J7.uasset",
				"D:/UnrealEngine/metro-dispatch/MetroDispatch/Content/__ExternalActors__/Maps/default/0/ZH/9U6DYLRTRKN9A9FILX8LVI.uasset",
				"D:/UnrealEngine/metro-dispatch/MetroDispatch/Content/__ExternalActors__/Maps/default/4/ZC/0X7OZDRDXKJVARS4D8XWHB.uasset",
				"D:/UnrealEngine/metro-dispatch/MetroDispatch/Content/__ExternalActors__/Maps/default/7/EU/G9SMVWMPMKZ6N7CH022D7K.uasset",
				"D:/UnrealEngine/metro-dispatch/MetroDispatch/Content/__ExternalActors__/Maps/default/D/9Z/E8ZUKPEJ9621IWSHUEAA2C.uasset",
				"D:/UnrealEngine/metro-dispatch/MetroDispatch/Content/__ExternalActors__/Maps/default/D/VR/QOP9RYPHD9H5T8UBOKLJEL.uasset",
				"D:/UnrealEngine/metro-dispatch/MetroDispatch/Content/__ExternalActors__/Maps/default/3/6Z/34K04IOWU20W8MP5O5N8U5.uasset",
				"D:/UnrealEngine/metro-dispatch/MetroDispatch/Content/__ExternalActors__/Maps/default/6/E2/9AQ0HCANOFMR6J9FKCWX0S.uasset",
				"D:/UnrealEngine/metro-dispatch/MetroDispatch/Content/__ExternalActors__/Maps/default/6/QW/M3DCYSA98J37WYH75Q7CT5.uasset",
				"D:/UnrealEngine/metro-dispatch/MetroDispatch/Content/__ExternalActors__/Maps/default/C/O9/C3Y8Q5Z7W2TFCM5Q25OI18.uasset",
				"D:/UnrealEngine/metro-dispatch/MetroDispatch/Content/__ExternalActors__/Maps/default/6/79/CYF9OO3TDXOWTS4CU0WENK.uasset",
				"D:/UnrealEngine/metro-dispatch/MetroDispatch/Content/__ExternalActors__/Maps/default/E/GN/5I7W02DZGA8Z76ZXJLU1K4.uasset",
				"D:/UnrealEngine/metro-dispatch/MetroDispatch/Content/__ExternalActors__/Maps/default/0/QH/D70TFOXVR3N2DC137FF2B8.uasset",
				"D:/UnrealEngine/metro-dispatch/MetroDispatch/Content/__ExternalActors__/Maps/default/8/6K/80VUTI58TZ5QBIRWPVBGMG.uasset",
				"D:/UnrealEngine/metro-dispatch/MetroDispatch/Content/__ExternalActors__/Maps/default/D/QM/G06PA1RIDLTKT818JYKPIF.uasset",
				"D:/UnrealEngine/metro-dispatch/MetroDispatch/Content/__ExternalActors__/Maps/default/B/SD/QWZDYQJPIZGSNS9E6JLCMD.uasset",
				"D:/UnrealEngine/metro-dispatch/MetroDispatch/Content/__ExternalActors__/Maps/default/3/VM/CCFPHRMJFYKDV2X5OPX6G3.uasset",
				"D:/UnrealEngine/metro-dispatch/MetroDispatch/Content/__ExternalActors__/Maps/default/B/TD/OCCOE713C5ZKD2MOZ9UVJM.uasset",
				"D:/UnrealEngine/metro-dispatch/MetroDispatch/Content/__ExternalActors__/Maps/default/8/04/450K9QAS4QVHSDEUUHMARW.uasset",
				"D:/UnrealEngine/metro-dispatch/MetroDispatch/Content/__ExternalActors__/Maps/default/E/Z0/SSFFY9SXR5VAJ9F2QNO6AP.uasset",
				"D:/UnrealEngine/metro-dispatch/MetroDispatch/Content/__ExternalActors__/Maps/default/C/BX/XH1NAGICTG6WUL09CTUFF8.uasset",
				"D:/UnrealEngine/metro-dispatch/MetroDispatch/Content/__ExternalActors__/Maps/default/A/WN/HTHXKKYMRTFKB0Y6180QWO.uasset",
				"D:/UnrealEngine/metro-dispatch/MetroDispatch/Content/__ExternalActors__/Maps/default/E/Q9/7PJ2Z7S0787YK0U9D3IKR4.uasset",
				"D:/UnrealEngine/metro-dispatch/MetroDispatch/Content/__ExternalActors__/Maps/default/3/Q1/SX6KQH5KONT0TK2DTN9UUP.uasset",
				"D:/UnrealEngine/metro-dispatch/MetroDispatch/Content/__ExternalActors__/Maps/default/9/U2/38BMXUB75N5IXKRPV4NWFT.uasset",
				"D:/UnrealEngine/metro-dispatch/MetroDispatch/Content/__ExternalActors__/Maps/default/D/WN/DXXMMSLHKBDTL89XYGDTLB.uasset",
				"D:/UnrealEngine/metro-dispatch/MetroDispatch/Content/__ExternalActors__/Maps/default/D/GZ/U2ZEQZHP5EVQWXOAO3PDXU.uasset",
				"D:/UnrealEngine/metro-dispatch/MetroDispatch/Content/__ExternalActors__/Maps/default/7/4E/AP74CCIYJPLXC2X5Z6RXUD.uasset",
				"D:/UnrealEngine/metro-dispatch/MetroDispatch/Content/__ExternalActors__/Maps/default/5/A0/QZ8UMIZREEMPPIHIWCPK5A.uasset",
				"D:/UnrealEngine/metro-dispatch/MetroDispatch/Content/__ExternalActors__/Maps/default/B/FJ/0NKBY0DR8WZWWXDGZPTYES.uasset",
				"D:/UnrealEngine/metro-dispatch/MetroDispatch/Content/__ExternalActors__/Maps/default/9/M3/BCST1HG5FB4G0TUMZ8YC6B.uasset",
				"D:/UnrealEngine/metro-dispatch/MetroDispatch/Content/__ExternalActors__/Maps/default/E/8K/BDGM0RFMREAX343QVPQAM9.uasset",
				"D:/UnrealEngine/metro-dispatch/MetroDispatch/Content/__ExternalActors__/Maps/default/6/1F/67R631GVIRFOG3H9CCOARU.uasset",
				"D:/UnrealEngine/metro-dispatch/MetroDispatch/Content/__ExternalActors__/Maps/default/7/RE/HO9NSGC7S2UTYXXK1Z2VKO.uasset",
				"D:/UnrealEngine/metro-dispatch/MetroDispatch/Content/__ExternalActors__/Maps/default/8/TD/G8JKVT4CF6PELNIGI2430M.uasset",
				"D:/UnrealEngine/metro-dispatch/MetroDispatch/Content/__ExternalActors__/Maps/default/3/8Y/C3QE5YEZ4TSKFRIA6SK7JO.uasset",
				"D:/UnrealEngine/metro-dispatch/MetroDispatch/Content/__ExternalActors__/Maps/default/5/E1/67XBMVMQESX7VP7PBN37UA.uasset",
				"D:/UnrealEngine/metro-dispatch/MetroDispatch/Content/__ExternalActors__/Maps/default/8/BX/QU7FUORDXH6C126T6YJ5RD.uasset",
				"D:/UnrealEngine/metro-dispatch/MetroDispatch/Content/__ExternalActors__/Maps/default/A/9T/9V6ZDU7UURGT51K2XK85M9.uasset",
				"D:/UnrealEngine/metro-dispatch/MetroDispatch/Content/__ExternalActors__/Maps/default/5/BS/JQ42XZYGCTOT0S73ME0M8F.uasset",
				"D:/UnrealEngine/metro-dispatch/MetroDispatch/Content/__ExternalActors__/Maps/default/0/HQ/PFV7JO2K2G86IV47F5JZIU.uasset",
				"D:/UnrealEngine/metro-dispatch/MetroDispatch/Content/__ExternalActors__/Maps/default/5/4K/2F8NUE7XUY7RY129PIM524.uasset",
				"D:/UnrealEngine/metro-dispatch/MetroDispatch/Content/__ExternalActors__/Maps/default/3/QD/I9MPRVPVZ3CM42SAYVF1ML.uasset",
				"D:/UnrealEngine/metro-dispatch/MetroDispatch/Content/__ExternalActors__/Maps/default/1/HT/TYJ216YRTMSL25UZNYXB1R.uasset",
				"D:/UnrealEngine/metro-dispatch/MetroDispatch/Content/__ExternalActors__/Maps/default/D/IN/X2QTPY1S9YC9KSPLX4CA6E.uasset",
				"D:/UnrealEngine/metro-dispatch/MetroDispatch/Content/__ExternalActors__/Maps/default/7/TW/TMQ2WFH1Q0UPXUF0C2QH9M.uasset",
				"D:/UnrealEngine/metro-dispatch/MetroDispatch/Content/__ExternalActors__/Maps/default/8/SO/UK195XQZBX3Y3ZO27TB4UW.uasset",
				"D:/UnrealEngine/metro-dispatch/MetroDispatch/Content/__ExternalActors__/Maps/default/7/WV/XDRLN46VASKLK9NQ2V0XIP.uasset",
				"D:/UnrealEngine/metro-dispatch/MetroDispatch/Content/__ExternalActors__/Maps/default/F/0D/3MPBRCUK6VG14I7B5L6ME6.uasset",
				"D:/UnrealEngine/metro-dispatch/MetroDispatch/Content/__ExternalActors__/Maps/default/8/5N/NWCSDW2LLC4NUDEDLTV57X.uasset",
				"D:/UnrealEngine/metro-dispatch/MetroDispatch/Content/__ExternalActors__/Maps/default/4/QQ/GEE8WGMCGM3V2E7KQNWZLU.uasset",
				"D:/UnrealEngine/metro-dispatch/MetroDispatch/Content/__ExternalActors__/Maps/default/3/1U/BS5LN4WRV6AUZHVUMYGLA1.uasset",
				"D:/UnrealEngine/metro-dispatch/MetroDispatch/Content/__ExternalActors__/Maps/default/A/BG/AYVA332C23GO6W6SVEUA9U.uasset",
				"D:/UnrealEngine/metro-dispatch/MetroDispatch/Content/__ExternalActors__/Maps/default/9/M5/UT4A4N04BUS5DPIQ58JD63.uasset",
				"D:/UnrealEngine/metro-dispatch/MetroDispatch/Content/__ExternalActors__/Maps/default/7/QH/UPD6631SR6HBQOWAZVHDN6.uasset",
				"D:/UnrealEngine/metro-dispatch/MetroDispatch/Content/__ExternalActors__/Maps/default/A/0J/I0E2ZLOOY7YGD1JFV8PERT.uasset",
				"D:/UnrealEngine/metro-dispatch/MetroDispatch/Content/__ExternalActors__/Maps/default/D/YF/GT5Z4W0TYXSPOLQ0AG98IB.uasset",
				"D:/UnrealEngine/metro-dispatch/MetroDispatch/Content/__ExternalActors__/Maps/default/A/C3/XEFRVY23G62C71QZ266Y93.uasset",
				"D:/UnrealEngine/metro-dispatch/MetroDispatch/Content/__ExternalActors__/Maps/default/2/KU/0ZJ0CAXG98KGLLDS12X5X8.uasset",
				"D:/UnrealEngine/metro-dispatch/MetroDispatch/Content/Maps/default.umap",
				"D:/UnrealEngine/metro-dispatch/MetroDispatch/Content/AssetsvilleTown/Maps/Demonstration.umap",
				"D:/UnrealEngine/metro-dispatch/MetroDispatch/Content/Maps/main_HLOD0_Instancing.uasset",
				"D:/UnrealEngine/metro-dispatch/MetroDispatch/Content/__ExternalActors__/Maps/main/1/2L/5BP37X95G0HNLWZ3DQF2GK.uasset",
				"D:/UnrealEngine/metro-dispatch/MetroDispatch/Content/__ExternalObjects__/Maps/main/5/AH/JTACAALD2DHKGELT1PTR6L.uasset",
				"D:/UnrealEngine/metro-dispatch/MetroDispatch/Content/__ExternalObjects__/Maps/main/C/2T/C22R875QSD0NXLV7RBC2WF.uasset",
				"D:/UnrealEngine/metro-dispatch/MetroDispatch/Content/__ExternalObjects__/Maps/main/9/H3/CGLXW7P2HJXWYDAS3QYNDD.uasset",
				"D:/UnrealEngine/metro-dispatch/MetroDispatch/Content/__ExternalObjects__/Maps/main/9/PJ/2R7G0AVL4RJE1E4PRBQDLH.uasset",
				"D:/UnrealEngine/metro-dispatch/MetroDispatch/Content/__ExternalObjects__/Maps/main/A/Y2/KOKE6XW04SV3U9EWEH6ER4.uasset",
				"D:/UnrealEngine/metro-dispatch/MetroDispatch/Content/__ExternalObjects__/Maps/main/2/HT/GXBTM26LD4CL49UPHY6RX0.uasset",
				"D:/UnrealEngine/metro-dispatch/MetroDispatch/Content/__ExternalActors__/Maps/main/1/JD/0FPP2VVQV0EJOFZL09DKYA.uasset",
				"D:/UnrealEngine/metro-dispatch/MetroDispatch/Content/__ExternalActors__/Maps/main/8/SA/8MIVP7EM95KYTNRBVDH3AI.uasset",
				"D:/UnrealEngine/metro-dispatch/MetroDispatch/Content/__ExternalActors__/Maps/main/1/QB/4KWYUD6JN55FR183U2LR58.uasset",
				"D:/UnrealEngine/metro-dispatch/MetroDispatch/Content/__ExternalActors__/Maps/main/2/CZ/7PEF9UDNWXM10KXF5K3EZS.uasset",
				"D:/UnrealEngine/metro-dispatch/MetroDispatch/Content/__ExternalActors__/Maps/main/7/TO/UL3NSAT7IKTZMAWT7YKAZQ.uasset",
				"D:/UnrealEngine/metro-dispatch/MetroDispatch/Content/__ExternalActors__/Maps/main/6/68/4C38MLB98FHHQSGR9LLNMG.uasset",
				"D:/UnrealEngine/metro-dispatch/MetroDispatch/Content/__ExternalActors__/Maps/main/7/JB/0KAMDDVQVZVRCBQVS0J49R.uasset",
				"D:/UnrealEngine/metro-dispatch/MetroDispatch/Content/__ExternalActors__/Maps/main/8/ZJ/XS72XCCYSJQHHYT1SCGOMG.uasset",
				"D:/UnrealEngine/metro-dispatch/MetroDispatch/Content/__ExternalActors__/Maps/main/0/X9/SW6Q91VOVD6J09UEMO2H31.uasset",
				"D:/UnrealEngine/metro-dispatch/MetroDispatch/Content/__ExternalActors__/Maps/main/1/S4/6T1OCYKBR07FI0BGNPL8IS.uasset",
				"D:/UnrealEngine/metro-dispatch/MetroDispatch/Content/__ExternalActors__/Maps/main/F/37/0Q80I9ALAMCYE1LFPRKWLJ.uasset",
				"D:/UnrealEngine/metro-dispatch/MetroDispatch/Content/__ExternalActors__/Maps/main/A/WZ/8ONIK9BYZZ335Z00YS74M9.uasset",
				"D:/UnrealEngine/metro-dispatch/MetroDispatch/Content/__ExternalActors__/Maps/main/B/V7/OVE2NOKJS5ETVQN2VOPMXZ.uasset",
				"D:/UnrealEngine/metro-dispatch/MetroDispatch/Content/__ExternalActors__/Maps/main/6/0T/RTPVMUPCD14P4VWML2IR53.uasset",
				"D:/UnrealEngine/metro-dispatch/MetroDispatch/Content/__ExternalActors__/Maps/main/C/UV/U3JR7ABVQIZ34RAHLGILX6.uasset",
				"D:/UnrealEngine/metro-dispatch/MetroDispatch/Content/__ExternalActors__/Maps/main/0/GR/XKX3R6A37YJFVZJYNJ1OYD.uasset",
				"D:/UnrealEngine/metro-dispatch/MetroDispatch/Content/__ExternalActors__/Maps/main/A/IX/HRTZQMG3TM7C9K1HG5FNQD.uasset",
				"D:/UnrealEngine/metro-dispatch/MetroDispatch/Content/__ExternalActors__/Maps/main/0/WM/VODIOXXJ0JSDRCY4HR8QTM.uasset",
				"D:/UnrealEngine/metro-dispatch/MetroDispatch/Content/__ExternalActors__/Maps/main/6/VJ/EAFZ00MJMYLQRYEF323AS4.uasset",
				"D:/UnrealEngine/metro-dispatch/MetroDispatch/Content/__ExternalActors__/Maps/main/C/SP/71UK67PW28Y6EAR0ZJBD47.uasset",
				"D:/UnrealEngine/metro-dispatch/MetroDispatch/Content/__ExternalActors__/Maps/main/6/NY/5S5D2BQJBUA8SECYRMTWW6.uasset",
				"D:/UnrealEngine/metro-dispatch/MetroDispatch/Content/__ExternalActors__/Maps/main/5/JB/53VXF899DO94F8EOYJY4L3.uasset",
				"D:/UnrealEngine/metro-dispatch/MetroDispatch/Content/__ExternalActors__/Maps/main/7/TM/P1MMSEZMBK0N1EKPCMX4EF.uasset",
				"D:/UnrealEngine/metro-dispatch/MetroDispatch/Content/__ExternalActors__/Maps/main/8/KV/SBAV8FTM3A0OSV49K2L8YU.uasset",
				"D:/UnrealEngine/metro-dispatch/MetroDispatch/Content/__ExternalActors__/Maps/main/1/H5/9GOQ5X1Y9SBK5V87WOU9MU.uasset",
				"D:/UnrealEngine/metro-dispatch/MetroDispatch/Content/__ExternalActors__/Maps/main/B/AQ/BSTI192ABSMAFS7ASBDDVE.uasset",
				"D:/UnrealEngine/metro-dispatch/MetroDispatch/Content/__ExternalActors__/Maps/main/F/5K/A2Q91UG7W1GR3ZZBS6HEVJ.uasset",
				"D:/UnrealEngine/metro-dispatch/MetroDispatch/Content/__ExternalActors__/Maps/main/0/IC/2ZQI1X1WPNDM9NWX58C5SF.uasset",
				"D:/UnrealEngine/metro-dispatch/MetroDispatch/Content/__ExternalActors__/Maps/main/8/BL/JYIVMYAWZKIDONG60YXXPY.uasset",
				"D:/UnrealEngine/metro-dispatch/MetroDispatch/Content/__ExternalActors__/Maps/main/B/A8/IYTEAYUV213OHAR53OFC0P.uasset",
				"D:/UnrealEngine/metro-dispatch/MetroDispatch/Content/__ExternalActors__/Maps/main/1/TB/RFWUG3T6S7GIIUB6FN98BK.uasset",
				"D:/UnrealEngine/metro-dispatch/MetroDispatch/Content/__ExternalActors__/Maps/main/E/X4/666ADK9EVW744WAGP1AFH4.uasset",
				"D:/UnrealEngine/metro-dispatch/MetroDispatch/Content/__ExternalActors__/Maps/main/1/M1/HOBI5AXE8IXD3JML7O2U9M.uasset",
				"D:/UnrealEngine/metro-dispatch/MetroDispatch/Content/__ExternalActors__/Maps/main/A/DC/DYD7TLGYCOOE4LHTMQG6SF.uasset",
				"D:/UnrealEngine/metro-dispatch/MetroDispatch/Content/__ExternalActors__/Maps/main/3/RG/OGKWS0T6VIOCSWTBB10UOR.uasset",
				"D:/UnrealEngine/metro-dispatch/MetroDispatch/Content/__ExternalActors__/Maps/main/E/17/0XPHYJ1X4V2IDHB55WJDK0.uasset",
				"D:/UnrealEngine/metro-dispatch/MetroDispatch/Content/__ExternalActors__/Maps/main/A/RR/NRCWF6ARL6BTE0OSK84EYB.uasset",
				"D:/UnrealEngine/metro-dispatch/MetroDispatch/Content/__ExternalActors__/Maps/main/E/QZ/X5TL2IODFWVPT98U936KOT.uasset",
				"D:/UnrealEngine/metro-dispatch/MetroDispatch/Content/__ExternalActors__/Maps/main/B/ET/2LMPCRS0AH7E4J0B50WGED.uasset",
				"D:/UnrealEngine/metro-dispatch/MetroDispatch/Content/__ExternalActors__/Maps/main/9/U6/1PNXTWY2C0CF6K5LI64X1J.uasset",
				"D:/UnrealEngine/metro-dispatch/MetroDispatch/Content/__ExternalActors__/Maps/main/1/V4/7KP2IB8TIGIGB8M8SYGAH9.uasset",
				"D:/UnrealEngine/metro-dispatch/MetroDispatch/Content/__ExternalActors__/Maps/main/7/KH/9NRYCBY9HPX460LOM06VGU.uasset",
				"D:/UnrealEngine/metro-dispatch/MetroDispatch/Content/__ExternalActors__/Maps/main/A/IN/BHJW5WTLS87AW70QW50OEP.uasset",
				"D:/UnrealEngine/metro-dispatch/MetroDispatch/Content/__ExternalActors__/Maps/main/B/IR/ECRPRH3CPDO9B0XIQORR44.uasset",
				"D:/UnrealEngine/metro-dispatch/MetroDispatch/Content/__ExternalActors__/Maps/main/9/LI/4V98JRXTHEM56ZPRWLWOTK.uasset",
				"D:/UnrealEngine/metro-dispatch/MetroDispatch/Content/__ExternalActors__/Maps/main/C/BT/0Y381HX60NWBMGTB6NWTHF.uasset",
				"D:/UnrealEngine/metro-dispatch/MetroDispatch/Content/__ExternalActors__/Maps/main/2/NM/F8B6MRQ5875I11LI88X62T.uasset",
				"D:/UnrealEngine/metro-dispatch/MetroDispatch/Content/__ExternalActors__/Maps/main/3/2T/4O9ZRVV9EMGQ51ZNNBL2A6.uasset",
				"D:/UnrealEngine/metro-dispatch/MetroDispatch/Content/__ExternalActors__/Maps/main/C/QV/U3ZC5XA7LQKKFIW04HTL7B.uasset",
				"D:/UnrealEngine/metro-dispatch/MetroDispatch/Content/__ExternalActors__/Maps/main/6/EO/1C21XWBJECBQ99OT52S40M.uasset",
				"D:/UnrealEngine/metro-dispatch/MetroDispatch/Content/__ExternalActors__/Maps/main/8/DH/QE4QXWWI9IT7CDN3FAD7OM.uasset",
				"D:/UnrealEngine/metro-dispatch/MetroDispatch/Content/__ExternalActors__/Maps/main/E/Q8/R3L6TKQENYDJA3D7L51O3C.uasset",
				"D:/UnrealEngine/metro-dispatch/MetroDispatch/Content/__ExternalActors__/Maps/main/3/OV/IXO3Y6D4W8O3OE42KF6PN5.uasset",
				"D:/UnrealEngine/metro-dispatch/MetroDispatch/Content/__ExternalActors__/Maps/main/8/3H/S7PDSKS1UZF9TC48KTB128.uasset",
				"D:/UnrealEngine/metro-dispatch/MetroDispatch/Content/__ExternalActors__/Maps/main/8/PR/8ROMGSWUOAILLIN9XVNYBW.uasset",
				"D:/UnrealEngine/metro-dispatch/MetroDispatch/Content/__ExternalActors__/Maps/main/3/1W/A2672DS0C7RUU6I9U3VY74.uasset",
				"D:/UnrealEngine/metro-dispatch/MetroDispatch/Content/__ExternalActors__/Maps/main/4/Q2/32TV23SETP5GGCLM35WCEM.uasset",
				"D:/UnrealEngine/metro-dispatch/MetroDispatch/Content/__ExternalActors__/Maps/main/4/PU/CF86DK5DYIOS56IBAJB9K9.uasset",
				"D:/UnrealEngine/metro-dispatch/MetroDispatch/Content/__ExternalActors__/Maps/main/0/0E/KCYOLXCMWB4I795RO0NPAL.uasset",
				"D:/UnrealEngine/metro-dispatch/MetroDispatch/Content/__ExternalActors__/Maps/main/7/Z1/MTBVS97IHODR59ICPI8T2H.uasset",
				"D:/UnrealEngine/metro-dispatch/MetroDispatch/Content/__ExternalActors__/Maps/main/7/CL/ETI6743ZWDGCP68ZUQT2Y7.uasset",
				"D:/UnrealEngine/metro-dispatch/MetroDispatch/Content/__ExternalActors__/Maps/main/A/24/D43G7UI7DHC3AFKCKFTIZR.uasset",
				"D:/UnrealEngine/metro-dispatch/MetroDispatch/Content/Maps/main.umap",
				"D:/UnrealEngine/metro-dispatch/MetroDispatch/Content/__ExternalActors__/Maps/main/0/P4/91OVP9BUM1VKWNKEUMZH1A.uasset",
				"D:/UnrealEngine/metro-dispatch/MetroDispatch/Content/__ExternalActors__/Maps/main/6/6J/3TD5OCQ1EGV82THKME4ILG.uasset"
			]
		}
	]
}